module main

go 1.15

require (
	github.com/dvsekhvalnov/jose2go v1.5.0
	github.com/gin-contrib/pprof v1.3.0 // indirect
	github.com/gin-gonic/gin v1.6.3
	github.com/pkg/errors v0.9.1
	github.com/prometheus/client_golang v1.11.0
	github.com/stretchr/testify v1.6.1 // indirect
)
